Location Name,Location description,Location Parent ID,Fail Reson 
Floor 10,All rooms and equipment0,Location Already exists
Floor 11,All rooms and equipment0,Location Already exists
Floor 12,All rooms and equipment0,Location Already exists
Floor 13,0,Location Already exists
Floor 14,All rooms and equipment0,Location Already exists
Floor 15,All rooms and equipment0,Location Already exists
Floor 16,All rooms and equipment0,Location Already exists
Floor 17,All rooms and equipment0,Location Already exists
